^C:\USERS\ОЛЬГА.POLUBOG97\DOCUMENTS\VISUAL STUDIO 2010\PROJECTS\VBABISON\VBABISON\STDAFX.CPP
C:\USERS\Ольга.POLUBOG97\DOCUMENTS\VISUAL STUDIO 2010\PROJECTS\VBABISON\VBABISON\DEBUG\VBABISON.PCH
C:\USERS\Ольга.POLUBOG97\DOCUMENTS\VISUAL STUDIO 2010\PROJECTS\VBABISON\VBABISON\DEBUG\STDAFX.OBJ
C:\USERS\ОЛЬГА.POLUBOG97\DOCUMENTS\VISUAL STUDIO 2010\PROJECTS\VBABISON\VBABISON\DEBUG\VC100.PDB
^C:\USERS\ОЛЬГА.POLUBOG97\DOCUMENTS\VISUAL STUDIO 2010\PROJECTS\VBABISON\VBABISON\FORBISON_TAB.C|C:\USERS\ОЛЬГА.POLUBOG97\DOCUMENTS\VISUAL STUDIO 2010\PROJECTS\VBABISON\VBABISON\LEXER.C
C:\USERS\Ольга.POLUBOG97\DOCUMENTS\VISUAL STUDIO 2010\PROJECTS\VBABISON\VBABISON\DEBUG\FORBISON_TAB.OBJ
C:\USERS\Ольга.POLUBOG97\DOCUMENTS\VISUAL STUDIO 2010\PROJECTS\VBABISON\VBABISON\DEBUG\LEXER.OBJ
^C:\USERS\ОЛЬГА.POLUBOG97\DOCUMENTS\VISUAL STUDIO 2010\PROJECTS\VBABISON\VBABISON\FORBISON_TAB.C
C:\USERS\ОЛЬГА.POLUBOG97\DOCUMENTS\VISUAL STUDIO 2010\PROJECTS\VBABISON\VBABISON\DEBUG\VC100.PDB
^C:\USERS\ОЛЬГА.POLUBOG97\DOCUMENTS\VISUAL STUDIO 2010\PROJECTS\VBABISON\VBABISON\LEXER.C
C:\USERS\ОЛЬГА.POLUBOG97\DOCUMENTS\VISUAL STUDIO 2010\PROJECTS\VBABISON\VBABISON\DEBUG\VC100.PDB
^D:\UCHEBA\VBA\PARSERBIZON\VBABISON\VBABISON\STDAFX.CPP
D:\UCHEBA\VBA\PARSERBIZON\VBABISON\VBABISON\DEBUG\VBABISON.PCH
D:\UCHEBA\VBA\PARSERBIZON\VBABISON\VBABISON\DEBUG\VC100.PDB
D:\UCHEBA\VBA\PARSERBIZON\VBABISON\VBABISON\DEBUG\STDAFX.OBJ
^D:\UCHEBA\VBA\PARSERBIZON\VBABISON\VBABISON\FORBISON_TAB.C|D:\UCHEBA\VBA\PARSERBIZON\VBABISON\VBABISON\LEXER.C
D:\UCHEBA\VBA\PARSERBIZON\VBABISON\VBABISON\DEBUG\FORBISON_TAB.OBJ
D:\UCHEBA\VBA\PARSERBIZON\VBABISON\VBABISON\DEBUG\LEXER.OBJ
^D:\UCHEBA\VBA\PARSERBIZON\VBABISON\VBABISON\FORBISON_TAB.C
D:\UCHEBA\VBA\PARSERBIZON\VBABISON\VBABISON\DEBUG\VC100.PDB
^D:\UCHEBA\VBA\PARSERBIZON\VBABISON\VBABISON\LEXER.C
D:\UCHEBA\VBA\PARSERBIZON\VBABISON\VBABISON\DEBUG\VC100.PDB
