^C:\USERS\ОЛЬГА.POLUBOG97\DOCUMENTS\VISUAL STUDIO 2010\PROJECTS\VBABISON\VBABISON\DEBUG\FORBISON_TAB.OBJ|C:\USERS\ОЛЬГА.POLUBOG97\DOCUMENTS\VISUAL STUDIO 2010\PROJECTS\VBABISON\VBABISON\DEBUG\LEXER.OBJ|C:\USERS\ОЛЬГА.POLUBOG97\DOCUMENTS\VISUAL STUDIO 2010\PROJECTS\VBABISON\VBABISON\DEBUG\STDAFX.OBJ
C:\USERS\Ольга.POLUBOG97\DOCUMENTS\VISUAL STUDIO 2010\PROJECTS\VBABISON\DEBUG\VBABISON.EXE
C:\USERS\Ольга.POLUBOG97\DOCUMENTS\VISUAL STUDIO 2010\PROJECTS\VBABISON\VBABISON\DEBUG\VBABISON.EXE.INTERMEDIATE.MANIFEST
C:\USERS\ОЛЬГА.POLUBOG97\DOCUMENTS\VISUAL STUDIO 2010\PROJECTS\VBABISON\DEBUG\VBABISON.PDB
^D:\UCHEBA\VBA\PARSERBIZON\VBABISON\VBABISON\DEBUG\FORBISON_TAB.OBJ|D:\UCHEBA\VBA\PARSERBIZON\VBABISON\VBABISON\DEBUG\LEXER.OBJ|D:\UCHEBA\VBA\PARSERBIZON\VBABISON\VBABISON\DEBUG\STDAFX.OBJ
D:\UCHEBA\VBA\PARSERBIZON\VBABISON\DEBUG\VBABISON.EXE
D:\UCHEBA\VBA\PARSERBIZON\VBABISON\VBABISON\DEBUG\VBABISON.EXE.INTERMEDIATE.MANIFEST
D:\UCHEBA\VBA\PARSERBIZON\VBABISON\DEBUG\VBABISON.PDB
